<?xml version="1.0" encoding="UTF-8" standalone="no"?>
<!-- Created with Inkscape (http://www.inkscape.org/) -->

<svg
   xmlns:dc="http://purl.org/dc/elements/1.1/"
   xmlns:cc="http://creativecommons.org/ns#"
   xmlns:rdf="http://www.w3.org/1999/02/22-rdf-syntax-ns#"
   xmlns:svg="http://www.w3.org/2000/svg"
   xmlns="http://www.w3.org/2000/svg"
   xmlns:xlink="http://www.w3.org/1999/xlink"
   xmlns:sodipodi="http://sodipodi.sourceforge.net/DTD/sodipodi-0.dtd"
   xmlns:inkscape="http://www.inkscape.org/namespaces/inkscape"
   width="109.02028mm"
   height="109.02028mm"
   viewBox="0 0 386.29233 386.29232"
   id="svg2"
   version="1.1"
   inkscape:version="0.91 r13725"
   sodipodi:docname="logo_lufa-econo.svg"
   inkscape:export-filename="/home/adrien/Desktop/greasemonkey/lufa/logo_lufa-econo.png"
   inkscape:export-xdpi="53.120392"
   inkscape:export-ydpi="53.120392">
  <defs
     id="defs4">
    <inkscape:perspective
       sodipodi:type="inkscape:persp3d"
       inkscape:vp_x="0 : 526.18107 : 1"
       inkscape:vp_y="0 : 999.99996 : 0"
       inkscape:vp_z="744.09449 : 526.18108 : 1"
       inkscape:persp3d-origin="372.04724 : 350.78739 : 1"
       id="perspective4208" />
    <clipPath
       clipPathUnits="userSpaceOnUse"
       id="clipPath6093">
      <path
         style="fill:#477a16;fill-opacity:1"
         d="m 539.78121,387.41199 6.28385,57.04862 c 5.30904,-18.07467 13.2058,-37.44105 25.53086,-52.18377 l 25.86851,-0.1271 c -27.34116,26.53689 -38.89572,53.79923 -42.35405,82.3232 -9.38238,-1.26824 -19.4054,-1.86339 -29.83497,-1.86735 l 0,-85.1936 14.5058,0 z m -14.71856,0 0,85.1936 c -10.42957,0.004 -20.45259,0.59911 -29.83496,1.86735 -3.45834,-28.52397 -15.0129,-55.78631 -42.35406,-82.3232 l 25.86852,0.1271 c 12.32505,14.74272 20.22182,34.1091 25.53086,52.18377 l 6.28384,-57.04862 14.5058,0 z"
         id="path6095"
         inkscape:connector-curvature="0" />
    </clipPath>
    <clipPath
       clipPathUnits="userSpaceOnUse"
       id="clipPath6097">
      <path
         style="fill:#477a16;fill-opacity:1"
         d="m 512.66016,387.4668 -5.30664,56.98437 c -4.48343,-18.05431 -11.15217,-37.39888 -21.56055,-52.125 l -21.8457,-0.12695 c 23.08933,26.507 32.84704,53.73863 35.76757,82.23047 7.92332,-1.26681 16.38766,-1.86129 25.19532,-1.86524 l 0,-85.09765 -12.25,0 z m 12.42968,0 0,85.09765 c 8.80766,0.004 17.272,0.59843 25.19532,1.86524 2.92053,-28.49184 12.67824,-55.72347 35.76757,-82.23047 l -21.8457,0.12695 c -10.40838,14.72612 -17.07712,34.07069 -21.56055,52.125 l -5.30664,-56.98437 -12.25,0 z"
         id="path6099"
         inkscape:connector-curvature="0" />
    </clipPath>
    <clipPath
       clipPathUnits="userSpaceOnUse"
       id="clipPath6101">
      <path
         style="fill:#477a16;fill-opacity:1"
         d="m 512.66016,387.4668 -5.30664,56.98437 c -4.48343,-18.05431 -11.15217,-37.39888 -21.56055,-52.125 l -21.8457,-0.12695 c 23.08933,26.507 32.84704,53.73863 35.76757,82.23047 7.92332,-1.26681 16.38766,-1.86129 25.19532,-1.86524 l 0,-85.09765 -12.25,0 z m 12.42968,0 0,85.09765 c 8.80766,0.004 17.272,0.59843 25.19532,1.86524 2.92053,-28.49184 12.67824,-55.72347 35.76757,-82.23047 l -21.8457,0.12695 c -10.40838,14.72612 -17.07712,34.07069 -21.56055,52.125 l -5.30664,-56.98437 -12.25,0 z"
         id="path6103"
         inkscape:connector-curvature="0" />
    </clipPath>
    <clipPath
       clipPathUnits="userSpaceOnUse"
       id="clipPath6105">
      <path
         style="fill:#477a16;fill-opacity:1"
         d="m 510.55684,387.41199 -6.28384,57.04862 c -5.30904,-18.07467 -13.20581,-37.44105 -25.53086,-52.18377 l -25.86852,-0.1271 c 27.34116,26.53689 38.89573,53.79923 42.35406,82.3232 9.38238,-1.26824 19.4054,-1.86339 29.83496,-1.86735 l 0,-85.1936 -14.5058,0 z m 14.71857,0 0,85.1936 c 10.42956,0.004 20.45259,0.59911 29.83496,1.86735 3.45834,-28.52397 15.0129,-55.78631 42.35406,-82.3232 l -25.86852,0.1271 c -12.32505,14.74272 -20.22182,34.1091 -25.53086,52.18377 l -6.28384,-57.04862 -14.5058,0 z"
         id="path6107"
         inkscape:connector-curvature="0" />
    </clipPath>
    <clipPath
       clipPathUnits="userSpaceOnUse"
       id="clipPath6109">
      <path
         style="fill:#477a16;fill-opacity:1"
         d="m 512.66016,387.4668 -5.30664,56.98437 c -4.48343,-18.05431 -11.15217,-37.39888 -21.56055,-52.125 l -21.8457,-0.12695 c 23.08933,26.507 32.84704,53.73863 35.76757,82.23047 7.92332,-1.26681 16.38766,-1.86129 25.19532,-1.86524 l 0,-85.09765 -12.25,0 z m 12.42968,0 0,85.09765 c 8.80766,0.004 17.272,0.59843 25.19532,1.86524 2.92053,-28.49184 12.67824,-55.72347 35.76757,-82.23047 l -21.8457,0.12695 c -10.40838,14.72612 -17.07712,34.07069 -21.56055,52.125 l -5.30664,-56.98437 -12.25,0 z"
         id="path6111"
         inkscape:connector-curvature="0" />
    </clipPath>
    <clipPath
       clipPathUnits="userSpaceOnUse"
       id="clipPath6113">
      <path
         style="fill:#477a16;fill-opacity:1"
         d="m 512.66016,387.4668 -5.30664,56.98437 c -4.48343,-18.05431 -11.15217,-37.39888 -21.56055,-52.125 l -21.8457,-0.12695 c 23.08933,26.507 32.84704,53.73863 35.76757,82.23047 7.92332,-1.26681 16.38766,-1.86129 25.19532,-1.86524 l 0,-85.09765 -12.25,0 z m 12.42968,0 0,85.09765 c 8.80766,0.004 17.272,0.59843 25.19532,1.86524 2.92053,-28.49184 12.67824,-55.72347 35.76757,-82.23047 l -21.8457,0.12695 c -10.40838,14.72612 -17.07712,34.07069 -21.56055,52.125 l -5.30664,-56.98437 -12.25,0 z"
         id="path6115"
         inkscape:connector-curvature="0" />
    </clipPath>
    <clipPath
       clipPathUnits="userSpaceOnUse"
       id="clipPath6406">
      <circle
         style="opacity:1;fill:#330080;fill-opacity:1;stroke:#000000;stroke-width:0;stroke-miterlimit:4;stroke-dasharray:none;stroke-opacity:1"
         id="circle6408"
         cx="360"
         cy="439.10776"
         r="126.00791" />
    </clipPath>
  </defs>
  <sodipodi:namedview
     id="base"
     pagecolor="#ffffff"
     bordercolor="#666666"
     borderopacity="1.0"
     inkscape:pageopacity="0.0"
     inkscape:pageshadow="2"
     inkscape:zoom="1.782329"
     inkscape:cx="288.36182"
     inkscape:cy="191.26234"
     inkscape:document-units="px"
     inkscape:current-layer="layer1"
     showgrid="false"
     objecttolerance="10000"
     guidetolerance="10000"
     inkscape:snap-path-clip="true"
     inkscape:snap-path-mask="true"
     inkscape:window-width="1920"
     inkscape:window-height="1016"
     inkscape:window-x="0"
     inkscape:window-y="27"
     inkscape:window-maximized="1"
     fit-margin-top="0"
     fit-margin-left="0"
     fit-margin-right="0"
     fit-margin-bottom="0">
    <inkscape:grid
       type="xygrid"
       id="grid4205"
       originx="-166.49669"
       originy="-424.10826" />
  </sodipodi:namedview>
  <metadata
     id="metadata7">
    <rdf:RDF>
      <cc:Work
         rdf:about="">
        <dc:format>image/svg+xml</dc:format>
        <dc:type
           rdf:resource="http://purl.org/dc/dcmitype/StillImage" />
        <dc:title></dc:title>
      </cc:Work>
    </rdf:RDF>
  </metadata>
  <g
     inkscape:label="Layer 1"
     inkscape:groupmode="layer"
     id="layer1"
     transform="translate(-166.49668,-241.96159)">
    <circle
       style="opacity:1;fill:#f8f8fd;fill-opacity:1;stroke:#090649;stroke-width:6;stroke-miterlimit:4;stroke-dasharray:none;stroke-opacity:1"
       id="path6130"
       cx="359.64285"
       cy="435.10776"
       r="186.78571" />
    <g
       id="g6598"
       transform="matrix(1.37269,0,0,1.0401359,-134.0353,-57.828571)">
      <path
         transform="matrix(0.99065438,0,0,0.99065438,-160.45069,-63.100652)"
         clip-path="url(#clipPath6113)"
         sodipodi:nodetypes="ccccc"
         inkscape:connector-curvature="0"
         id="rect4230"
         d="m 564.20609,392.32523 21.84598,-0.12627 c -25.22447,28.95818 -34.56429,58.77612 -36.4292,90.16325 l -14.20804,-0.88388 c 3.59702,-22.15893 10.28016,-62.96299 28.79126,-89.1531 z"
         style="fill:#008033;fill-opacity:1" />
      <path
         transform="matrix(1.0416847,0,0,0.99065438,-188.29848,-63.100652)"
         clip-path="url(#clipPath6109)"
         sodipodi:nodetypes="ccccc"
         inkscape:connector-curvature="0"
         id="rect4227"
         d="m 524.91088,387.46683 12.42934,0 8.37036,89.8954 -20.7997,0 z"
         style="fill:#008033;fill-opacity:1" />
      <path
         transform="matrix(0.99065438,0,0,0.99065438,-160.45069,-63.100652)"
         clip-path="url(#clipPath6101)"
         style="fill:#2ca05a;fill-opacity:1"
         d="m 485.79391,392.32523 -21.84598,-0.12627 c 25.22447,28.95818 34.56429,58.77612 36.4292,90.16325 l 14.20804,-0.88388 c -3.59702,-22.15893 -10.28016,-62.96299 -28.79126,-89.1531 z"
         id="path5953"
         inkscape:connector-curvature="0"
         sodipodi:nodetypes="ccccc" />
      <path
         transform="matrix(0.99065438,0,0,0.99065438,-160.45069,-63.100652)"
         clip-path="url(#clipPath6097)"
         style="fill:#2ca05a;fill-opacity:1"
         d="m 525.08912,387.46683 -12.42934,0 -8.37036,89.8954 20.7997,0 z"
         id="path5955"
         inkscape:connector-curvature="0"
         sodipodi:nodetypes="ccccc" />
      <path
         sodipodi:nodetypes="sszssss"
         inkscape:connector-curvature="0"
         id="path4224"
         d="m 438.89521,461.80964 c 0,34.07237 -24.48677,52.12611 -54.6228,67.03893 -19.67628,9.7368 -19.67628,33.75387 -24.62955,33.75387 -4.95327,0 -4.95327,-24.01707 -25.85334,-34.19706 -29.80692,-14.51835 -53.39901,-32.96325 -53.39901,-66.59574 0,-42.40206 35.48248,-56.76148 79.25235,-56.76148 43.76986,0 79.25235,14.35942 79.25235,56.76148 z"
         style="fill:#ccaaff;fill-opacity:1" />
      <path
         sodipodi:nodetypes="cc"
         inkscape:connector-curvature="0"
         id="path6169"
         d="M 262.5,557.71934 C 315,602.3622 400,607.3622 456.78571,557.3622"
         style="fill:none;fill-rule:evenodd;stroke:#000000;stroke-width:0;stroke-linecap:butt;stroke-linejoin:miter;stroke-miterlimit:4;stroke-dasharray:none;stroke-opacity:1" />
      <path
         style="fill:none;fill-rule:evenodd;stroke:#000000;stroke-width:0;stroke-linecap:butt;stroke-linejoin:miter;stroke-miterlimit:4;stroke-dasharray:none;stroke-opacity:1"
         d="M 262.5,557.71934 C 315,602.3622 400,607.3622 456.78571,557.3622"
         id="path6180"
         inkscape:connector-curvature="0"
         sodipodi:nodetypes="cc" />
      <path
         sodipodi:nodetypes="cc"
         inkscape:connector-curvature="0"
         id="path6204"
         d="m 310,324.3622 c 33.33333,-10.49696 66.66667,-11.05004 100,0"
         style="fill:none;fill-rule:evenodd;stroke:#000000;stroke-width:0;stroke-linecap:butt;stroke-linejoin:miter;stroke-miterlimit:4;stroke-dasharray:none;stroke-opacity:1" />
      <path
         inkscape:connector-curvature="0"
         id="path6497"
         d="m 359.64258,405.04883 c -43.76987,0 -79.25196,14.35966 -79.25196,56.76172 0,2.20415 0.10693,4.33916 0.30469,6.41601 a 291.42902,234.86047 0 0 1 78.94727,-8.82422 291.42902,234.86047 0 0 1 78.92383,9.00782 c 0.21214,-2.13323 0.32812,-4.32778 0.32812,-6.59961 0,-42.40206 -35.48209,-56.76172 -79.25195,-56.76172 z"
         style="fill:#5a2ca0;fill-opacity:1" />
    </g>
    <text
       xml:space="preserve"
       style="font-style:normal;font-variant:normal;font-weight:normal;font-stretch:normal;font-size:50px;line-height:125%;font-family:'PakType Naskh Basic';-inkscape-font-specification:'PakType Naskh Basic';letter-spacing:0px;word-spacing:0px;fill:#000000;fill-opacity:1;stroke:none;stroke-width:1px;stroke-linecap:butt;stroke-linejoin:miter;stroke-opacity:1"
       id="text6611"
       sodipodi:linespacing="125%"
       transform="matrix(0.99886225,-0.04768874,0.04768874,0.99886225,-34.966848,17.870425)"><textPath
         xlink:href="#path6730"
         id="textPath6732"><tspan
   style="font-style:normal;font-variant:normal;font-weight:bold;font-stretch:normal;font-size:80px;font-family:MathJax_SansSerif;-inkscape-font-specification:'MathJax_SansSerif Bold'"
   id="tspan6613">écono</tspan></textPath></text>
    <path
       style="fill:none;fill-rule:evenodd;stroke:#000000;stroke-width:0;stroke-linecap:butt;stroke-linejoin:miter;stroke-opacity:1;stroke-miterlimit:4;stroke-dasharray:none"
       d="m 256.4634,565.90177 c 77.38054,28.51942 154.21756,34.21129 230.10451,0"
       id="path6730"
       inkscape:connector-curvature="0"
       sodipodi:nodetypes="cc" />
  </g>
</svg>
